<?xml version="1.0" encoding="UTF-8"?>
<kml xmlns="http://www.opengis.net/kml/2.2" xmlns:gx="http://www.google.com/kml/ext/2.2" xmlns:globalmapper="http://www.bluemarblegeo.com/globalmapper">
<Document>
  <!-- Begin Style Definitions -->
  <Style id="point1">
    <IconStyle><Icon><href>kml_symbol_dot_0.png</href></Icon></IconStyle>
  </Style>
  <Folder>
    <name>Point Features</name>
    <description>Point Features</description>
    <Placemark>
      <TimeStamp>
        <when>2019-07-12T13:28:01Z</when>
      </TimeStamp>
      <description>Waypoint</description>
      <name>440</name>
      <styleUrl>#point1</styleUrl>
      <Point>
        <coordinates>-35.1734410000,-7.8988080000,70.231</coordinates>
      </Point>
    </Placemark>
    <Placemark>
      <TimeStamp>
        <when>2019-07-12T13:28:22Z</when>
      </TimeStamp>
      <description>Waypoint</description>
      <name>441</name>
      <styleUrl>#point1</styleUrl>
      <Point>
        <coordinates>-35.1734290000,-7.8988180000,76.561</coordinates>
      </Point>
    </Placemark>
    <Placemark>
      <TimeStamp>
        <when>2019-07-12T13:29:08Z</when>
      </TimeStamp>
      <description>Waypoint</description>
      <name>442</name>
      <styleUrl>#point1</styleUrl>
      <Point>
        <coordinates>-35.1734150000,-7.8988120000,82.22</coordinates>
      </Point>
    </Placemark>
    <Placemark>
      <TimeStamp>
        <when>2019-07-12T13:29:29Z</when>
      </TimeStamp>
      <description>Waypoint</description>
      <name>443</name>
      <styleUrl>#point1</styleUrl>
      <Point>
        <coordinates>-35.1733650000,-7.8988250000,83.587</coordinates>
      </Point>
    </Placemark>
    <Placemark>
      <TimeStamp>
        <when>2019-07-12T13:31:00Z</when>
      </TimeStamp>
      <description>Waypoint</description>
      <name>444</name>
      <styleUrl>#point1</styleUrl>
      <Point>
        <coordinates>-35.1734460000,-7.8982660000,76.537</coordinates>
      </Point>
    </Placemark>
    <Placemark>
      <TimeStamp>
        <when>2019-07-12T13:31:02Z</when>
      </TimeStamp>
      <description>Waypoint</description>
      <name>445</name>
      <styleUrl>#point1</styleUrl>
      <Point>
        <coordinates>-35.1734470000,-7.8982650000,76.567</coordinates>
      </Point>
    </Placemark>
    <Placemark>
      <TimeStamp>
        <when>2019-07-12T13:31:29Z</when>
      </TimeStamp>
      <description>Waypoint</description>
      <name>446</name>
      <styleUrl>#point1</styleUrl>
      <Point>
        <coordinates>-35.1733600000,-7.8982690000,79.149</coordinates>
      </Point>
    </Placemark>
    <Placemark>
      <TimeStamp>
        <when>2019-07-12T13:31:30Z</when>
      </TimeStamp>
      <description>Waypoint</description>
      <name>447</name>
      <styleUrl>#point1</styleUrl>
      <Point>
        <coordinates>-35.1733590000,-7.8982700000,79.147</coordinates>
      </Point>
    </Placemark>
    <Placemark>
      <TimeStamp>
        <when>2019-07-12T13:48:59Z</when>
      </TimeStamp>
      <description>Waypoint</description>
      <name>448</name>
      <styleUrl>#point1</styleUrl>
      <Point>
        <coordinates>-35.1757280000,-7.8984890000,214.02</coordinates>
      </Point>
    </Placemark>
  </Folder>
</Document>
</kml>
